\relax 
\catcode`"\active
\select@language{portuguese}
\@writefile{toc}{\select@language{portuguese}}
\@writefile{lof}{\select@language{portuguese}}
\@writefile{lot}{\select@language{portuguese}}
\@writefile{toc}{\contentsline {section}{\numberline {1}Parte 1}{3}}
\@writefile{toc}{\contentsline {subsection}{\numberline {1.1}Determina\IeC {\c c}\IeC {\~a}o da lista de atividades}{3}}
\@writefile{lof}{\contentsline {figure}{\numberline {1}{\ignorespaces Rede de projeto}}{3}}
\newlabel{fig:utl}{{1}{3}}
\@writefile{toc}{\contentsline {subsection}{\numberline {1.2}Modelo do caminho mais longo}{3}}
\@writefile{toc}{\contentsline {subsection}{\numberline {1.3}Input}{4}}
\@writefile{toc}{\contentsline {subsection}{\numberline {1.4}Output}{5}}
\@writefile{toc}{\contentsline {subsection}{\numberline {1.5}Indica\IeC {\c c}\IeC {\~a}o do caminho mais longo (cr\IeC {\'\i }tico)}{5}}
\@writefile{lof}{\contentsline {figure}{\numberline {2}{\ignorespaces Representa\IeC {\c c}\IeC {\~a}o do caminho critico.}}{5}}
\newlabel{fig:utl}{{2}{5}}
\@writefile{toc}{\contentsline {section}{\numberline {2}Parte 2}{6}}
\@writefile{toc}{\contentsline {subsection}{\numberline {2.1}Modelo Programa\IeC {\c c}\IeC {\~a}o Linear}{6}}
\@writefile{toc}{\contentsline {subsection}{\numberline {2.2}Input}{6}}
\@writefile{toc}{\contentsline {subsection}{\numberline {2.3}Output}{7}}
\@writefile{toc}{\contentsline {subsection}{\numberline {2.4}Diagrama de Gantt}{8}}
\@writefile{lof}{\contentsline {figure}{\numberline {3}{\ignorespaces Tabela de suporte ao Diagrama de Gantt relativa \IeC {\`a} parte 2.}}{8}}
\newlabel{fig:utl}{{3}{8}}
\@writefile{lof}{\contentsline {figure}{\numberline {4}{\ignorespaces Diagrama de Gantt relativo \IeC {\`a} parte 2.}}{8}}
\newlabel{fig:utl}{{4}{8}}
\@writefile{toc}{\contentsline {subsection}{\numberline {2.5}Instante de tempo de uma atividade do caminho critico}{9}}
\@writefile{toc}{\contentsline {subsection}{\numberline {2.6}Instante de tempo de uma atividade fora do caminho critico}{9}}
\@writefile{toc}{\contentsline {section}{\numberline {3}Parte 3}{10}}
\@writefile{toc}{\contentsline {subsection}{\numberline {3.1}Modelo de Programa\IeC {\c c}\IeC {\~a}o linear}{10}}
\@writefile{toc}{\contentsline {subsection}{\numberline {3.2}Input}{10}}
\@writefile{toc}{\contentsline {subsection}{\numberline {3.3}Output}{12}}
\@writefile{toc}{\contentsline {subsection}{\numberline {3.4}Diagrama de Gantt}{13}}
\@writefile{lof}{\contentsline {figure}{\numberline {5}{\ignorespaces Tabela de suporte ao Diagrama de Gantt}}{13}}
\newlabel{fig:utl}{{5}{13}}
\@writefile{lof}{\contentsline {figure}{\numberline {6}{\ignorespaces Diagrama de Gantt}}{13}}
\newlabel{fig:utl}{{6}{13}}
\@writefile{toc}{\contentsline {section}{\numberline {4}Parte 4}{14}}
\@writefile{toc}{\contentsline {subsection}{\numberline {4.1}Gr\IeC {\'a}fico custo/dura\IeC {\c c}\IeC {\~a}o}{14}}
\@writefile{lof}{\contentsline {figure}{\numberline {7}{\ignorespaces Relacionamento entre a dura\IeC {\c c}\IeC {\~a}o e o respetivo custo.}}{14}}
\newlabel{fig:utl}{{7}{14}}
\@writefile{lof}{\contentsline {figure}{\numberline {8}{\ignorespaces Gr\IeC {\'a}fico produzido a partir da Figura 8.}}{14}}
\newlabel{fig:utl}{{8}{14}}
\@writefile{toc}{\contentsline {section}{\numberline {5}Parte 5}{15}}
\@writefile{toc}{\contentsline {subsection}{\numberline {5.1}Altera\IeC {\c c}\IeC {\~o}es Efectuadas ao Modelo da Parte 3}{15}}
\@writefile{toc}{\contentsline {subsection}{\numberline {5.2}Input}{15}}
\@writefile{toc}{\contentsline {subsection}{\numberline {5.3}Output}{17}}
\@writefile{toc}{\contentsline {subsection}{\numberline {5.4}Diagrama de Gantt}{18}}
\@writefile{lof}{\contentsline {figure}{\numberline {9}{\ignorespaces Tabela de suporte ao Diagrama de Gantt}}{18}}
\newlabel{fig:utl}{{9}{18}}
\@writefile{lof}{\contentsline {figure}{\numberline {10}{\ignorespaces Diagrama de Gantt}}{18}}
\newlabel{fig:utl}{{10}{18}}
